<svg xmlns="http://www.w3.org/2000/svg" fill="none" viewBox="0 0 22 16">
  <path fill="#E25950" d="M0 4.2666H22V11.7333H0V4.2666Z"/>
  <path fill="#FCD669" d="M0 13.8665V10.6665H22V13.8665C22 14.4323 21.7793 14.9749 21.3863 15.375C20.9934 15.7751 20.4605 15.9998 19.9048 15.9998H2.09524C1.53955 15.9998 1.00661 15.7751 0.613679 15.375C0.220746 14.9749 0 14.4323 0 13.8665Z"/>
  <path fill="#333" d="M22 2.13333V5.33333H0V2.13333C0 1.56754 0.220746 1.02491 0.613679 0.624837C1.00661 0.22476 1.53955 0 2.09524 0H19.9048C20.4605 0 20.9934 0.22476 21.3863 0.624837C21.7793 1.02491 22 1.56754 22 2.13333Z"/>
</svg>
